# Blender v2.74 (sub 0) OBJ File: 'cannon_barrels.blend'
# www.blender.org
mtllib cannon_barrels.mtl
o Cube.007_Cube.013
v 0.375000 0.000001 -0.177189
v 0.373078 0.019510 -0.177189
v -0.275000 0.100001 -0.177189
v -0.275000 0.100000 -0.577189
v -0.294509 0.098079 -0.177189
v -0.294509 0.098079 -0.577189
v -0.313269 0.092389 -0.177189
v -0.313269 0.092389 -0.577189
v -0.330557 0.083147 -0.177189
v -0.330557 0.083147 -0.577189
v -0.345711 0.070711 -0.177189
v -0.345711 0.070711 -0.577189
v -0.358147 0.055558 -0.177189
v -0.358147 0.055558 -0.577189
v -0.367388 0.038269 -0.177189
v -0.367388 0.038269 -0.577189
v -0.373079 0.019510 -0.177189
v -0.373079 0.019510 -0.577189
v -0.375000 0.000001 -0.177189
v -0.375000 0.000001 -0.577189
v -0.373079 -0.019508 -0.177189
v -0.373079 -0.019509 -0.577189
v -0.367388 -0.038268 -0.177189
v -0.367388 -0.038268 -0.577189
v -0.358147 -0.055556 -0.177189
v -0.358147 -0.055556 -0.577189
v -0.345711 -0.070710 -0.177189
v -0.345711 -0.070710 -0.577189
v -0.330557 -0.083146 -0.177189
v -0.330557 -0.083146 -0.577189
v -0.313269 -0.092387 -0.177189
v -0.313269 -0.092387 -0.577189
v -0.294509 -0.098078 -0.177189
v -0.294509 -0.098078 -0.577189
v -0.275000 -0.099999 -0.177189
v -0.275000 -0.099999 -0.577189
v -0.255491 -0.098078 -0.177189
v -0.255491 -0.098078 -0.577189
v -0.236732 -0.092387 -0.177189
v -0.236732 -0.092387 -0.577189
v -0.219443 -0.083146 -0.177189
v -0.219443 -0.083146 -0.577189
v -0.204290 -0.070710 -0.177189
v -0.204290 -0.070710 -0.577189
v -0.191853 -0.055556 -0.177189
v -0.191853 -0.055556 -0.577189
v -0.182612 -0.038268 -0.177189
v -0.182612 -0.038268 -0.577189
v -0.176922 -0.019508 -0.177189
v -0.176922 -0.019508 -0.577189
v -0.175000 0.000001 -0.177189
v -0.175000 0.000001 -0.577189
v -0.176922 0.019510 -0.177189
v -0.176922 0.019510 -0.577189
v -0.182612 0.038269 -0.177189
v -0.182613 0.038269 -0.577189
v -0.191853 0.055558 -0.177189
v -0.191854 0.055558 -0.577189
v -0.204290 0.070711 -0.177189
v -0.204290 0.070711 -0.577189
v -0.219443 0.083148 -0.177189
v -0.219443 0.083148 -0.577189
v -0.236732 0.092389 -0.177189
v -0.236732 0.092389 -0.577189
v -0.255492 0.098079 -0.177189
v -0.255492 0.098079 -0.577189
v -0.288628 0.068513 -0.577189
v -0.275000 0.069855 -0.577189
v -0.301733 0.064538 -0.577189
v -0.313810 0.058083 -0.577189
v -0.324395 0.049395 -0.577189
v -0.333083 0.038810 -0.577189
v -0.339538 0.026733 -0.577189
v -0.343513 0.013629 -0.577189
v -0.344855 0.000001 -0.577189
v -0.343513 -0.013627 -0.577189
v -0.339538 -0.026732 -0.577189
v -0.333083 -0.038809 -0.577189
v -0.324395 -0.049394 -0.577189
v -0.313810 -0.058082 -0.577189
v -0.301733 -0.064537 -0.577189
v -0.288628 -0.068512 -0.577189
v -0.275000 -0.069854 -0.577189
v -0.261372 -0.068512 -0.577189
v -0.248268 -0.064537 -0.577189
v -0.236191 -0.058082 -0.577189
v -0.225606 -0.049394 -0.577189
v -0.216918 -0.038809 -0.577189
v -0.210463 -0.026732 -0.577189
v -0.206488 -0.013627 -0.577189
v -0.205146 0.000001 -0.577189
v -0.206488 0.013629 -0.577189
v -0.210463 0.026733 -0.577189
v -0.216918 0.038810 -0.577189
v -0.225606 0.049395 -0.577189
v -0.236191 0.058083 -0.577189
v -0.248268 0.064538 -0.577189
v -0.261373 0.068513 -0.577189
v -0.288629 0.068513 -1.077189
v -0.275001 0.069855 -1.077189
v -0.301733 0.064538 -1.077189
v -0.313810 0.058083 -1.077189
v -0.324396 0.049395 -1.077189
v -0.333083 0.038810 -1.077189
v -0.339538 0.026733 -1.077189
v -0.343513 0.013628 -1.077189
v -0.344855 0.000000 -1.077189
v -0.343513 -0.013627 -1.077189
v -0.339538 -0.026732 -1.077189
v -0.333083 -0.038809 -1.077189
v -0.324395 -0.049394 -1.077189
v -0.313810 -0.058082 -1.077189
v -0.301733 -0.064537 -1.077189
v -0.288629 -0.068512 -1.077189
v -0.275001 -0.069854 -1.077189
v -0.261373 -0.068512 -1.077189
v -0.248268 -0.064537 -1.077189
v -0.236191 -0.058082 -1.077189
v -0.225606 -0.049394 -1.077189
v -0.216918 -0.038809 -1.077189
v -0.210463 -0.026732 -1.077189
v -0.206488 -0.013627 -1.077189
v -0.205146 0.000001 -1.077189
v -0.206488 0.013629 -1.077189
v -0.210463 0.026733 -1.077189
v -0.216918 0.038810 -1.077189
v -0.225606 0.049395 -1.077189
v -0.236191 0.058083 -1.077189
v -0.248268 0.064538 -1.077189
v -0.261373 0.068513 -1.077189
v -0.150000 -0.075000 0.141563
v -0.150000 0.075000 0.141563
v -0.400000 -0.075000 0.141563
v -0.400000 0.075000 0.141563
v 0.400000 0.075000 0.141562
v -0.150000 -0.075000 -0.177188
v -0.200000 -0.125000 -0.177188
v -0.200000 0.125000 -0.177188
v -0.150000 0.075000 -0.177188
v -0.350000 -0.125000 -0.177188
v -0.400000 -0.075000 -0.177188
v -0.400000 0.075000 -0.177188
v -0.350000 0.125000 -0.177188
v -0.200000 -0.125000 0.091563
v -0.150000 -0.075000 0.141563
v -0.150000 0.075000 0.141563
v -0.200000 0.125000 0.091563
v -0.400000 -0.075000 0.141563
v -0.350000 -0.125000 0.091563
v -0.350000 0.125000 0.091563
v -0.400000 0.075000 0.141563
v -0.294509 0.098079 -0.577189
v -0.275000 0.100000 -0.577189
v -0.313269 0.092389 -0.577189
v -0.330557 0.083147 -0.577189
v -0.345711 0.070711 -0.577189
v -0.358147 0.055558 -0.577189
v -0.367388 0.038269 -0.577189
v -0.373079 0.019510 -0.577189
v -0.375000 0.000001 -0.577189
v -0.373079 -0.019509 -0.577189
v -0.367388 -0.038268 -0.577189
v -0.358147 -0.055556 -0.577189
v -0.345711 -0.070710 -0.577189
v -0.330557 -0.083146 -0.577189
v -0.313269 -0.092387 -0.577189
v -0.294509 -0.098078 -0.577189
v -0.275000 -0.099999 -0.577189
v -0.255491 -0.098078 -0.577189
v -0.236732 -0.092387 -0.577189
v -0.219443 -0.083146 -0.577189
v -0.204290 -0.070710 -0.577189
v -0.191853 -0.055556 -0.577189
v -0.182612 -0.038268 -0.577189
v -0.176922 -0.019508 -0.577189
v -0.175000 0.000001 -0.577189
v -0.176922 0.019510 -0.577189
v -0.182613 0.038269 -0.577189
v -0.191854 0.055558 -0.577189
v -0.204290 0.070711 -0.577189
v -0.219443 0.083148 -0.577189
v -0.236732 0.092389 -0.577189
v -0.255492 0.098079 -0.577189
v -0.288628 0.068513 -0.577189
v -0.275000 0.069855 -0.577189
v -0.301733 0.064538 -0.577189
v -0.313810 0.058083 -0.577189
v -0.324395 0.049395 -0.577189
v -0.333083 0.038810 -0.577189
v -0.339538 0.026733 -0.577189
v -0.343513 0.013629 -0.577189
v -0.344855 0.000001 -0.577189
v -0.343513 -0.013627 -0.577189
v -0.339538 -0.026732 -0.577189
v -0.333083 -0.038809 -0.577189
v -0.324395 -0.049394 -0.577189
v -0.313810 -0.058082 -0.577189
v -0.301733 -0.064537 -0.577189
v -0.288628 -0.068512 -0.577189
v -0.275000 -0.069854 -0.577189
v -0.261372 -0.068512 -0.577189
v -0.248268 -0.064537 -0.577189
v -0.236191 -0.058082 -0.577189
v -0.225606 -0.049394 -0.577189
v -0.216918 -0.038809 -0.577189
v -0.210463 -0.026732 -0.577189
v -0.206488 -0.013627 -0.577189
v -0.205146 0.000001 -0.577189
v -0.206488 0.013629 -0.577189
v -0.210463 0.026733 -0.577189
v -0.216918 0.038810 -0.577189
v -0.225606 0.049395 -0.577189
v -0.236191 0.058083 -0.577189
v -0.248268 0.064538 -0.577189
v -0.261373 0.068513 -0.577189
v -0.288629 0.068513 -1.077189
v -0.275001 0.069855 -1.077189
v -0.301733 0.064538 -1.077189
v -0.313810 0.058083 -1.077189
v -0.324396 0.049395 -1.077189
v -0.333083 0.038810 -1.077189
v -0.339538 0.026733 -1.077189
v -0.343513 0.013628 -1.077189
v -0.344855 0.000000 -1.077189
v -0.343513 -0.013627 -1.077189
v -0.339538 -0.026732 -1.077189
v -0.333083 -0.038809 -1.077189
v -0.324395 -0.049394 -1.077189
v -0.313810 -0.058082 -1.077189
v -0.301733 -0.064537 -1.077189
v -0.288629 -0.068512 -1.077189
v -0.275001 -0.069854 -1.077189
v -0.261373 -0.068512 -1.077189
v -0.248268 -0.064537 -1.077189
v -0.236191 -0.058082 -1.077189
v -0.225606 -0.049394 -1.077189
v -0.216918 -0.038809 -1.077189
v -0.210463 -0.026732 -1.077189
v -0.206488 -0.013627 -1.077189
v -0.205146 0.000001 -1.077189
v -0.206488 0.013629 -1.077189
v -0.210463 0.026733 -1.077189
v -0.216918 0.038810 -1.077189
v -0.225606 0.049395 -1.077189
v -0.236191 0.058083 -1.077189
v -0.248268 0.064538 -1.077189
v -0.261373 0.068513 -1.077189
v -0.400000 0.075000 0.141563
v -0.400000 0.075000 0.141563
v -0.150000 0.075000 0.141563
v -0.150000 0.075000 0.141563
v -0.150000 -0.075000 0.141563
v -0.150000 -0.075000 0.141563
v -0.400000 -0.075000 0.141563
v -0.400000 -0.075000 0.141563
v -0.200000 -0.125000 -0.177188
v -0.200000 -0.125000 -0.177188
v -0.150000 -0.075000 -0.177188
v -0.150000 -0.075000 -0.177188
v -0.150000 -0.075000 0.141563
v -0.150000 -0.075000 0.141563
v -0.200000 -0.125000 0.091563
v -0.200000 -0.125000 0.091563
v -0.350000 -0.125000 0.091563
v -0.350000 -0.125000 0.091563
v -0.400000 -0.075000 0.141563
v -0.400000 -0.075000 0.141563
v -0.400000 -0.075000 -0.177188
v -0.400000 -0.075000 -0.177188
v -0.350000 -0.125000 -0.177188
v -0.350000 -0.125000 -0.177188
v -0.150000 0.075000 -0.177188
v -0.150000 0.075000 -0.177188
v -0.200000 0.125000 -0.177188
v -0.200000 0.125000 -0.177188
v -0.200000 0.125000 0.091563
v -0.200000 0.125000 0.091563
v -0.150000 0.075000 0.141563
v -0.150000 0.075000 0.141563
v -0.350000 0.125000 -0.177188
v -0.350000 0.125000 -0.177188
v -0.400000 0.075000 -0.177188
v -0.400000 0.075000 -0.177188
v -0.400000 0.075000 0.141563
v -0.400000 0.075000 0.141563
v -0.350000 0.125000 0.091563
v -0.350000 0.125000 0.091563
v -0.375000 0.000001 -0.177189
v -0.373078 0.019510 -0.177189
v 0.275000 0.100001 -0.177189
v 0.275000 0.100000 -0.577189
v 0.294509 0.098079 -0.177189
v 0.294509 0.098079 -0.577189
v 0.313269 0.092389 -0.177189
v 0.313269 0.092389 -0.577189
v 0.330557 0.083147 -0.177189
v 0.330557 0.083147 -0.577189
v 0.345711 0.070711 -0.177189
v 0.345711 0.070711 -0.577189
v 0.358147 0.055558 -0.177189
v 0.358147 0.055558 -0.577189
v 0.367388 0.038269 -0.177189
v 0.367388 0.038269 -0.577189
v 0.373079 0.019510 -0.177189
v 0.373079 0.019510 -0.577189
v 0.375000 0.000001 -0.177189
v 0.375000 0.000001 -0.577189
v 0.373079 -0.019508 -0.177189
v 0.373079 -0.019509 -0.577189
v 0.367388 -0.038268 -0.177189
v 0.367388 -0.038268 -0.577189
v 0.358147 -0.055556 -0.177189
v 0.358147 -0.055556 -0.577189
v 0.345711 -0.070710 -0.177189
v 0.345711 -0.070710 -0.577189
v 0.330557 -0.083146 -0.177189
v 0.330557 -0.083146 -0.577189
v 0.313269 -0.092387 -0.177189
v 0.313269 -0.092387 -0.577189
v 0.294509 -0.098078 -0.177189
v 0.294509 -0.098078 -0.577189
v 0.275000 -0.099999 -0.177189
v 0.275000 -0.099999 -0.577189
v 0.255491 -0.098078 -0.177189
v 0.255491 -0.098078 -0.577189
v 0.236732 -0.092387 -0.177189
v 0.236732 -0.092387 -0.577189
v 0.219443 -0.083146 -0.177189
v 0.219443 -0.083146 -0.577189
v 0.204290 -0.070710 -0.177189
v 0.204290 -0.070710 -0.577189
v 0.191853 -0.055556 -0.177189
v 0.191853 -0.055556 -0.577189
v 0.182612 -0.038268 -0.177189
v 0.182612 -0.038268 -0.577189
v 0.176922 -0.019508 -0.177189
v 0.176922 -0.019508 -0.577189
v 0.175000 0.000001 -0.177189
v 0.175000 0.000001 -0.577189
v 0.176922 0.019510 -0.177189
v 0.176922 0.019510 -0.577189
v 0.182612 0.038269 -0.177189
v 0.182612 0.038269 -0.577189
v 0.191853 0.055558 -0.177189
v 0.191853 0.055558 -0.577189
v 0.204290 0.070711 -0.177189
v 0.204290 0.070711 -0.577189
v 0.219443 0.083148 -0.177189
v 0.219443 0.083148 -0.577189
v 0.236732 0.092389 -0.177189
v 0.236732 0.092389 -0.577189
v 0.255491 0.098079 -0.177189
v 0.255491 0.098079 -0.577189
v 0.288628 0.068513 -0.577189
v 0.275000 0.069855 -0.577189
v 0.301733 0.064538 -0.577189
v 0.313810 0.058083 -0.577189
v 0.324395 0.049395 -0.577189
v 0.333082 0.038810 -0.577189
v 0.339538 0.026733 -0.577189
v 0.343513 0.013629 -0.577190
v 0.344855 0.000001 -0.577190
v 0.343513 -0.013627 -0.577190
v 0.339538 -0.026732 -0.577189
v 0.333082 -0.038809 -0.577189
v 0.324395 -0.049394 -0.577189
v 0.313810 -0.058082 -0.577189
v 0.301733 -0.064537 -0.577189
v 0.288628 -0.068512 -0.577189
v 0.275000 -0.069854 -0.577189
v 0.261372 -0.068512 -0.577189
v 0.248268 -0.064537 -0.577189
v 0.236191 -0.058082 -0.577189
v 0.225606 -0.049394 -0.577189
v 0.216918 -0.038809 -0.577189
v 0.210463 -0.026732 -0.577189
v 0.206488 -0.013627 -0.577189
v 0.205145 0.000001 -0.577189
v 0.206488 0.013629 -0.577189
v 0.210463 0.026733 -0.577189
v 0.216918 0.038810 -0.577189
v 0.225606 0.049395 -0.577189
v 0.236191 0.058083 -0.577189
v 0.248268 0.064538 -0.577189
v 0.261372 0.068513 -0.577189
v 0.288628 0.068513 -1.077189
v 0.275000 0.069855 -1.077189
v 0.301733 0.064538 -1.077189
v 0.313810 0.058083 -1.077189
v 0.324395 0.049395 -1.077189
v 0.333083 0.038810 -1.077189
v 0.339538 0.026733 -1.077189
v 0.343513 0.013628 -1.077189
v 0.344855 0.000000 -1.077189
v 0.343513 -0.013627 -1.077189
v 0.339538 -0.026732 -1.077189
v 0.333083 -0.038809 -1.077189
v 0.324395 -0.049394 -1.077189
v 0.313810 -0.058082 -1.077189
v 0.301733 -0.064537 -1.077189
v 0.288628 -0.068512 -1.077189
v 0.275000 -0.069854 -1.077189
v 0.261372 -0.068512 -1.077189
v 0.248268 -0.064537 -1.077189
v 0.236191 -0.058082 -1.077189
v 0.225606 -0.049394 -1.077189
v 0.216918 -0.038809 -1.077189
v 0.210463 -0.026732 -1.077189
v 0.206488 -0.013627 -1.077189
v 0.205146 0.000001 -1.077189
v 0.206488 0.013629 -1.077189
v 0.210463 0.026733 -1.077189
v 0.216918 0.038810 -1.077189
v 0.225606 0.049395 -1.077189
v 0.236191 0.058083 -1.077189
v 0.248268 0.064538 -1.077189
v 0.261373 0.068513 -1.077189
v 0.150000 -0.075000 0.141562
v 0.150000 0.075000 0.141562
v 0.400000 -0.075000 0.141562
v 0.400000 0.075000 0.141562
v -0.400000 0.075000 0.141563
v 0.150000 -0.075000 -0.177188
v 0.200000 -0.125000 -0.177188
v 0.200000 0.125000 -0.177188
v 0.150000 0.075000 -0.177188
v 0.350000 -0.125000 -0.177188
v 0.400000 -0.075000 -0.177188
v 0.400000 0.075000 -0.177188
v 0.350000 0.125000 -0.177188
v 0.200000 -0.125000 0.091562
v 0.150000 -0.075000 0.141562
v 0.150000 0.075000 0.141562
v 0.200000 0.125000 0.091562
v 0.400000 -0.075000 0.141562
v 0.350000 -0.125000 0.091562
v 0.350000 0.125000 0.091562
v 0.400000 0.075000 0.141562
v 0.294509 0.098079 -0.577189
v 0.275000 0.100000 -0.577189
v 0.313269 0.092389 -0.577189
v 0.330557 0.083147 -0.577189
v 0.345711 0.070711 -0.577189
v 0.358147 0.055558 -0.577189
v 0.367388 0.038269 -0.577189
v 0.373079 0.019510 -0.577189
v 0.375000 0.000001 -0.577189
v 0.373079 -0.019509 -0.577189
v 0.367388 -0.038268 -0.577189
v 0.358147 -0.055556 -0.577189
v 0.345711 -0.070710 -0.577189
v 0.330557 -0.083146 -0.577189
v 0.313269 -0.092387 -0.577189
v 0.294509 -0.098078 -0.577189
v 0.275000 -0.099999 -0.577189
v 0.255491 -0.098078 -0.577189
v 0.236732 -0.092387 -0.577189
v 0.219443 -0.083146 -0.577189
v 0.204290 -0.070710 -0.577189
v 0.191853 -0.055556 -0.577189
v 0.182612 -0.038268 -0.577189
v 0.176922 -0.019508 -0.577189
v 0.175000 0.000001 -0.577189
v 0.176922 0.019510 -0.577189
v 0.182612 0.038269 -0.577189
v 0.191853 0.055558 -0.577189
v 0.204290 0.070711 -0.577189
v 0.219443 0.083148 -0.577189
v 0.236732 0.092389 -0.577189
v 0.255491 0.098079 -0.577189
v 0.288628 0.068513 -0.577189
v 0.275000 0.069855 -0.577189
v 0.301733 0.064538 -0.577189
v 0.313810 0.058083 -0.577189
v 0.324395 0.049395 -0.577189
v 0.333082 0.038810 -0.577189
v 0.339538 0.026733 -0.577189
v 0.343513 0.013629 -0.577190
v 0.344855 0.000001 -0.577190
v 0.343513 -0.013627 -0.577190
v 0.339538 -0.026732 -0.577189
v 0.333082 -0.038809 -0.577189
v 0.324395 -0.049394 -0.577189
v 0.313810 -0.058082 -0.577189
v 0.301733 -0.064537 -0.577189
v 0.288628 -0.068512 -0.577189
v 0.275000 -0.069854 -0.577189
v 0.261372 -0.068512 -0.577189
v 0.248268 -0.064537 -0.577189
v 0.236191 -0.058082 -0.577189
v 0.225606 -0.049394 -0.577189
v 0.216918 -0.038809 -0.577189
v 0.210463 -0.026732 -0.577189
v 0.206488 -0.013627 -0.577189
v 0.205145 0.000001 -0.577189
v 0.206488 0.013629 -0.577189
v 0.210463 0.026733 -0.577189
v 0.216918 0.038810 -0.577189
v 0.225606 0.049395 -0.577189
v 0.236191 0.058083 -0.577189
v 0.248268 0.064538 -0.577189
v 0.261372 0.068513 -0.577189
v 0.288628 0.068513 -1.077189
v 0.275000 0.069855 -1.077189
v 0.301733 0.064538 -1.077189
v 0.313810 0.058083 -1.077189
v 0.324395 0.049395 -1.077189
v 0.333083 0.038810 -1.077189
v 0.339538 0.026733 -1.077189
v 0.343513 0.013628 -1.077189
v 0.344855 0.000000 -1.077189
v 0.343513 -0.013627 -1.077189
v 0.339538 -0.026732 -1.077189
v 0.333083 -0.038809 -1.077189
v 0.324395 -0.049394 -1.077189
v 0.313810 -0.058082 -1.077189
v 0.301733 -0.064537 -1.077189
v 0.288628 -0.068512 -1.077189
v 0.275000 -0.069854 -1.077189
v 0.261372 -0.068512 -1.077189
v 0.248268 -0.064537 -1.077189
v 0.236191 -0.058082 -1.077189
v 0.225606 -0.049394 -1.077189
v 0.216918 -0.038809 -1.077189
v 0.210463 -0.026732 -1.077189
v 0.206488 -0.013627 -1.077189
v 0.205146 0.000001 -1.077189
v 0.206488 0.013629 -1.077189
v 0.210463 0.026733 -1.077189
v 0.216918 0.038810 -1.077189
v 0.225606 0.049395 -1.077189
v 0.236191 0.058083 -1.077189
v 0.248268 0.064538 -1.077189
v 0.261373 0.068513 -1.077189
v 0.400000 0.075000 0.141562
v 0.400000 0.075000 0.141562
v 0.150000 0.075000 0.141562
v 0.150000 0.075000 0.141562
v 0.150000 -0.075000 0.141562
v 0.150000 -0.075000 0.141562
v 0.400000 -0.075000 0.141562
v 0.400000 -0.075000 0.141562
v 0.200000 -0.125000 -0.177188
v 0.200000 -0.125000 -0.177188
v 0.150000 -0.075000 -0.177188
v 0.150000 -0.075000 -0.177188
v 0.150000 -0.075000 0.141562
v 0.150000 -0.075000 0.141562
v 0.200000 -0.125000 0.091562
v 0.200000 -0.125000 0.091562
v 0.350000 -0.125000 0.091562
v 0.350000 -0.125000 0.091562
v 0.400000 -0.075000 0.141562
v 0.400000 -0.075000 0.141562
v 0.400000 -0.075000 -0.177188
v 0.400000 -0.075000 -0.177188
v 0.350000 -0.125000 -0.177188
v 0.350000 -0.125000 -0.177188
v 0.150000 0.075000 -0.177188
v 0.150000 0.075000 -0.177188
v 0.200000 0.125000 -0.177188
v 0.200000 0.125000 -0.177188
v 0.200000 0.125000 0.091562
v 0.200000 0.125000 0.091562
v 0.150000 0.075000 0.141562
v 0.150000 0.075000 0.141562
v 0.350000 0.125000 -0.177188
v 0.350000 0.125000 -0.177188
v 0.400000 0.075000 -0.177188
v 0.400000 0.075000 -0.177188
v 0.400000 0.075000 0.141562
v 0.400000 0.075000 0.141562
v 0.350000 0.125000 0.091562
v 0.350000 0.125000 0.091562
vn 0.000000 -1.000000 -0.000000
vn -1.000000 0.000000 0.000000
vn 0.000000 1.000000 0.000000
vn 0.707100 -0.707100 -0.000000
vn -0.707100 -0.707100 0.000000
vn 0.707100 0.707100 -0.000000
vn -0.707100 0.707100 0.000000
vn 1.000000 0.000000 -0.000000
vn -0.195100 0.980800 0.000000
vn -0.382700 0.923900 0.000000
vn -0.555600 0.831400 0.000000
vn -0.831400 0.555600 0.000000
vn -0.923900 0.382700 0.000000
vn -0.980800 0.195100 0.000000
vn -0.980800 -0.195100 0.000000
vn -0.923900 -0.382700 0.000000
vn -0.831400 -0.555600 0.000000
vn -0.555600 -0.831400 0.000000
vn -0.382700 -0.923900 0.000000
vn -0.195100 -0.980800 0.000000
vn 0.195100 -0.980800 0.000000
vn 0.382700 -0.923900 0.000000
vn 0.555600 -0.831400 0.000000
vn 0.831400 -0.555600 0.000000
vn 0.923900 -0.382700 0.000000
vn 0.980800 -0.195100 0.000000
vn 0.980800 0.195100 0.000000
vn 0.923900 0.382700 0.000000
vn 0.831400 0.555600 0.000000
vn 0.555600 0.831400 0.000000
vn 0.382700 0.923900 0.000000
vn 0.195100 0.980800 0.000000
vn 0.000000 0.000000 1.000000
vn 0.000000 -0.707100 0.707100
vn -0.000000 0.000000 -1.000000
vn 0.000000 0.707100 0.707100
usemtl Body
s off
f 256//1 262//1 264//1 270//1
f 141//2 266//2 255//2 248//2 151//2 282//2
f 280//3 286//3 147//3 274//3
f 258//4 145//4 263//4 257//4
f 267//5 269//5 271//5 265//5
f 275//6 277//6 278//6 272//6
f 283//7 285//7 287//7 281//7
f 259//8 273//8 279//8 251//8 253//8 261//8
f 543//1 557//1 551//1 549//1
f 428//8 569//8 438//8 535//8 542//8 553//8
f 567//3 561//3 434//3 573//3
f 545//5 544//5 550//5 432//5
f 554//4 552//4 558//4 556//4
f 562//7 559//7 565//7 564//7
f 570//6 568//6 574//6 572//6
f 546//2 548//2 540//2 538//2 566//2 560//2
s 1
f 3//3 4//3 6//9 5//9
f 5//9 6//9 8//10 7//10
f 7//10 8//10 10//11 9//11
f 9//11 10//11 12//7 11//7
f 11//7 12//7 14//12 13//12
f 13//12 14//12 16//13 15//13
f 15//13 16//13 18//14 17//14
f 17//14 18//14 20//2 19//2
f 19//2 20//2 22//15 21//15
f 21//15 22//15 24//16 23//16
f 23//16 24//16 26//17 25//17
f 25//17 26//17 28//5 27//5
f 27//5 28//5 30//18 29//18
f 29//18 30//18 32//19 31//19
f 31//19 32//19 34//20 33//20
f 33//20 34//20 36//1 35//1
f 35//1 36//1 38//21 37//21
f 37//21 38//21 40//22 39//22
f 39//22 40//22 42//23 41//23
f 41//23 42//23 44//4 43//4
f 43//4 44//4 46//24 45//24
f 45//24 46//24 48//25 47//25
f 47//25 48//25 50//26 49//26
f 49//26 50//26 52//8 51//8
f 51//8 52//8 54//27 53//27
f 53//27 54//27 56//28 55//28
f 55//28 56//28 58//29 57//29
f 57//29 58//29 60//6 59//6
f 59//6 60//6 62//30 61//30
f 61//30 62//30 64//31 63//31
f 68//3 98//32 247//32 217//3
f 65//32 66//32 4//3 3//3
f 63//31 64//31 66//32 65//32
f 88//24 87//4 236//4 237//24
f 77//16 76//15 225//15 226//16
f 97//31 96//30 245//30 246//31
f 86//23 85//22 234//22 235//23
f 75//2 74//14 223//14 224//2
f 95//6 94//29 243//29 244//6
f 84//21 83//1 232//1 233//21
f 73//13 72//12 221//12 222//13
f 93//28 92//27 241//27 242//28
f 188//7 70//11 219//11 220//7
f 82//20 81//19 230//19 231//20
f 91//8 90//26 239//26 240//8
f 69//10 67//9 216//9 218//10
f 80//18 79//5 228//5 229//18
f 89//25 88//24 237//24 238//25
f 78//17 77//16 226//16 227//17
f 98//32 97//31 246//31 247//32
f 87//4 86//23 235//23 236//4
f 76//15 75//2 224//2 225//15
f 96//30 95//6 244//6 245//30
f 85//22 84//21 233//21 234//22
f 74//14 73//13 222//13 223//14
f 94//29 93//28 242//28 243//29
f 72//12 188//7 220//7 221//12
f 83//1 82//20 231//20 232//1
f 92//27 91//8 240//8 241//27
f 70//11 69//10 218//10 219//11
f 81//19 80//18 229//18 230//19
f 90//26 89//25 238//25 239//26
f 67//9 68//3 217//3 216//9
f 79//5 78//17 227//17 228//5
f 290//3 292//32 293//32 291//3
f 292//32 294//31 295//31 293//32
f 294//31 296//30 297//30 295//31
f 296//30 298//6 299//6 297//30
f 298//6 300//29 301//29 299//6
f 300//29 302//28 303//28 301//29
f 302//28 304//27 305//27 303//28
f 304//27 306//8 307//8 305//27
f 306//8 308//26 309//26 307//8
f 308//26 310//25 311//25 309//26
f 310//25 312//24 313//24 311//25
f 312//24 314//4 315//4 313//24
f 314//4 316//23 317//23 315//4
f 316//23 318//22 319//22 317//23
f 318//22 320//21 321//21 319//22
f 320//21 322//1 323//1 321//21
f 322//1 324//20 325//20 323//1
f 324//20 326//19 327//19 325//20
f 326//19 328//18 329//18 327//19
f 328//18 330//5 331//5 329//18
f 330//5 332//17 333//17 331//5
f 332//17 334//16 335//16 333//17
f 334//16 336//15 337//15 335//16
f 336//15 338//2 339//2 337//15
f 338//2 340//14 341//14 339//2
f 340//14 342//13 343//13 341//14
f 342//13 344//12 345//12 343//13
f 344//12 346//7 347//7 345//12
f 346//7 348//11 349//11 347//7
f 348//11 350//10 351//10 349//11
f 355//3 504//3 534//9 385//9
f 352//9 290//3 291//3 353//9
f 350//10 352//9 353//9 351//10
f 375//17 524//17 523//5 374//5
f 364//25 513//25 512//26 363//26
f 384//10 533//10 532//11 383//11
f 373//18 522//18 521//19 372//19
f 362//8 511//8 510//27 361//27
f 382//7 531//7 530//12 381//12
f 371//20 520//20 519//1 370//1
f 360//28 509//28 508//29 359//29
f 380//13 529//13 528//14 379//14
f 475//6 507//6 506//30 357//30
f 369//21 518//21 517//22 368//22
f 378//2 527//2 526//15 377//15
f 356//31 505//31 503//32 354//32
f 367//23 516//23 515//4 366//4
f 376//16 525//16 524//17 375//17
f 365//24 514//24 513//25 364//25
f 385//9 534//9 533//10 384//10
f 374//5 523//5 522//18 373//18
f 363//26 512//26 511//8 362//8
f 383//11 532//11 531//7 382//7
f 372//19 521//19 520//20 371//20
f 361//27 510//27 509//28 360//28
f 381//12 530//12 529//13 380//13
f 359//29 508//29 507//6 475//6
f 370//1 519//1 518//21 369//21
f 379//14 528//14 527//2 378//2
f 357//30 506//30 505//31 356//31
f 368//22 517//22 516//23 367//23
f 377//15 526//15 525//16 376//16
f 354//32 503//32 504//3 355//3
f 366//4 515//4 514//24 365//24
usemtl Highlight
s off
f 132//33 134//33 133//33 131//33
f 148//34 149//34 144//34 260//34 252//34 254//34
f 138//35 139//35 136//35 137//35 140//35 268//35 142//35 143//35
f 146//36 276//36 150//36 284//36 249//36 250//36
f 419//33 418//33 420//33 421//33
f 435//34 541//34 539//34 547//34 431//34 436//34
f 425//35 430//35 429//35 555//35 427//35 424//35 423//35 426//35
f 433//36 537//36 536//36 571//36 437//36 563//36
s 1
f 187//35 71//35 156//35 155//35
f 185//35 184//35 186//35 187//35 155//35 154//35 152//35 153//35 183//35 182//35 181//35 180//35 179//35 178//35 177//35 176//35 175//35 174//35 173//35 172//35 171//35 170//35 169//35 168//35 167//35 166//35 165//35 164//35 163//35 162//35 161//35 160//35 159//35 158//35 157//35 156//35 71//35 189//35 190//35 191//35 192//35 193//35 194//35 195//35 196//35 197//35 198//35 199//35 200//35 201//35 202//35 203//35 204//35 205//35 206//35 207//35 208//35 209//35 210//35 211//35 212//35 213//35 214//35 215//35
f 474//35 442//35 443//35 358//35
f 472//35 502//35 501//35 500//35 499//35 498//35 497//35 496//35 495//35 494//35 493//35 492//35 491//35 490//35 489//35 488//35 487//35 486//35 485//35 484//35 483//35 482//35 481//35 480//35 479//35 478//35 477//35 476//35 358//35 443//35 444//35 445//35 446//35 447//35 448//35 449//35 450//35 451//35 452//35 453//35 454//35 455//35 456//35 457//35 458//35 459//35 460//35 461//35 462//35 463//35 464//35 465//35 466//35 467//35 468//35 469//35 470//35 440//35 439//35 441//35 442//35 474//35 473//35 471//35
usemtl Black
f 99//35 100//35 130//35 129//35 128//35 127//35 126//35 125//35 124//35 123//35 122//35 121//35 120//35 119//35 118//35 117//35 116//35 115//35 114//35 113//35 112//35 111//35 110//35 109//35 108//35 107//35 106//35 105//35 104//35 103//35 102//35 101//35
f 386//35 388//35 389//35 390//35 391//35 392//35 393//35 394//35 395//35 396//35 397//35 398//35 399//35 400//35 401//35 402//35 403//35 404//35 405//35 406//35 407//35 408//35 409//35 410//35 411//35 412//35 413//35 414//35 415//35 416//35 417//35 387//35
l 1 2
l 288 289
