# Blender MTL File: 'cannon_barrels.blend'
# Material Count: 3

newmtl Black
Ns 96.078431
Ka 0.000000 0.000000 0.000000
Kd 0.000000 0.000000 0.000000
Ks 0.000000 0.000000 0.000000
Ni 1.000000
d 1.000000
illum 2

newmtl Body
Ns 96.078431
Ka 0.000000 0.000000 0.000000
Kd 0.100000 0.100000 0.100000
Ks 0.000000 0.000000 0.000000
Ni 1.000000
d 1.000000
illum 2

newmtl Highlight
Ns 96.078431
Ka 0.000000 0.000000 0.000000
Kd 0.000000 0.000000 0.400000
Ks 0.000000 0.000000 0.000000
Ni 1.000000
d 1.000000
illum 2
