# Blender v2.74 (sub 0) OBJ File: 'destroyer_c5.blend'
# www.blender.org
mtllib destroyer_c5.mtl
o Cube.001_Cube.003
v 1.874999 0.468750 -7.500000
v 1.874999 -0.468750 -7.500000
v 1.874999 0.468750 -3.750000
v 1.874999 -0.468750 -3.750000
v 6.499999 -1.968750 -3.750001
v 6.499999 -1.031250 -3.750001
v 6.499998 -1.968750 -6.750001
v 6.499998 -1.031250 -6.750001
v 1.874999 -0.468750 -3.750000
v 1.874999 -0.468750 -3.750000
v 1.874999 0.468750 -3.750000
v 1.874999 0.468750 -3.750000
v 1.874999 -0.468750 -7.500000
v 1.874999 -0.468750 -7.500000
v 1.874999 0.468750 -7.500000
v 1.874999 0.468750 -7.500000
v 6.499999 -1.968750 -3.750001
v 6.499999 -1.968750 -3.750001
v 6.499999 -1.031250 -3.750001
v 6.499999 -1.031250 -3.750001
v 6.499998 -1.968750 -6.750001
v 6.499998 -1.968750 -6.750001
v 6.499998 -1.031250 -6.750001
v 6.499998 -1.031250 -6.750001
vn -0.308500 -0.951200 0.000000
vn 1.000000 0.000000 -0.000000
vn -1.000000 0.000000 0.000000
vn 0.308500 0.951200 -0.000000
vn -0.160100 0.000000 0.987100
vn -0.000000 0.000000 -1.000000
usemtl None
s off
f 11//1 15//1 23//1 19//1
f 3//2 4//2 2//2 1//2
f 6//3 8//3 7//3 5//3
f 13//4 9//4 17//4 21//4
f 16//5 14//5 22//5 24//5
f 10//6 12//6 20//6 18//6
