# Blender v2.76 (sub 0) OBJ File: 'destroyer_c2.blend'
# www.blender.org
mtllib destroyer_c2.mtl
o Cylinder
v 2.334594 -1.249879 -5.000000
v 2.415747 -1.000799 -6.000000
v 2.478913 -0.751113 -7.000000
v 2.524060 -0.500974 -8.000000
v 2.524042 0.501093 -8.000001
v 2.478890 0.751227 -7.000000
v 2.415713 1.000913 -6.000000
v 2.334551 1.249999 -5.000000
v 1.250000 1.249999 -5.000000
v 1.250000 -1.249879 -5.000000
v 1.250000 1.250000 -4.000000
v 1.250000 -1.250000 -4.000000
v 1.250000 -0.500974 -8.000000
v 1.250000 0.501089 -8.000001
v 2.524042 0.501093 -3.000000
v 2.524060 -0.500974 -3.000000
v 4.524059 -0.500936 -4.000000
v 4.524059 -0.500936 -8.000000
v 4.524042 0.501127 -8.000001
v 4.524042 0.501127 -4.000000
v 7.500009 -1.501029 -4.000000
v 7.500009 -1.501029 -7.000000
v 7.499991 -0.498971 -7.000001
v 7.499991 -0.498971 -4.000000
v 1.250000 0.937500 -3.000000
v 1.250000 -0.937500 -3.000000
v 1.250000 -0.100000 -3.000000
v 1.250000 0.000000 -3.000000
v 2.524060 -0.500974 -8.000000
v 2.524060 -0.500974 -8.000000
v 1.250000 -0.500974 -8.000000
v 1.250000 -0.500974 -8.000000
v 1.250000 0.501089 -8.000001
v 1.250000 0.501089 -8.000001
v 1.250000 -1.249879 -5.000000
v 1.250000 1.249999 -5.000000
v 2.524042 0.501093 -8.000001
v 2.524042 0.501093 -8.000001
v 4.524059 -0.500936 -4.000000
v 4.524059 -0.500936 -4.000000
v 4.524059 -0.500936 -4.000000
v 4.524059 -0.500936 -8.000000
v 4.524059 -0.500936 -8.000000
v 4.524059 -0.500936 -8.000000
v 4.524042 0.501127 -8.000001
v 4.524042 0.501127 -8.000001
v 4.524042 0.501127 -8.000001
v 4.524042 0.501127 -4.000000
v 4.524042 0.501127 -4.000000
v 4.524042 0.501127 -4.000000
v 2.524042 0.501093 -3.000000
v 2.524060 -0.500974 -3.000000
v 7.500009 -1.501029 -4.000000
v 7.500009 -1.501029 -4.000000
v 7.500009 -1.501029 -7.000000
v 7.500009 -1.501029 -7.000000
v 7.499991 -0.498971 -7.000001
v 7.499991 -0.498971 -7.000001
v 7.499991 -0.498971 -4.000000
v 7.499991 -0.498971 -4.000000
vn 0.000000 1.000000 0.000000
vn 0.000000 -1.000000 0.000000
vn 0.318600 0.947900 0.000000
vn -0.318500 -0.947900 0.000000
vn -1.000000 0.000000 0.000000
vn -0.000300 0.970200 -0.242200
vn 0.000000 0.000000 -1.000000
vn -0.000300 -0.970200 -0.242200
vn 0.000000 0.000000 1.000000
vn 0.447200 0.000000 0.894400
vn 1.000000 0.000000 0.000000
vn 0.318500 0.000000 -0.947900
usemtl Body
s 1
f 51//1 48//1 46//1 38//1
f 30//2 42//2 39//2 52//2
f 20//3 24//3 23//3 19//3
f 18//4 22//4 21//4 41//4
f 11//5 9//5 14//5 13//5 10//5 12//5 26//5 27//5 28//5 25//5
usemtl Highlight
f 5//6 34//6 36//6 8//6 7//6 6//6
f 37//7 4//7 31//7 33//7
f 1//8 35//8 32//8 29//8 3//8 2//8
f 40//9 54//9 60//9 49//9
f 37//7 45//7 43//7 4//7
f 16//10 17//10 50//10 15//10
f 55//11 57//11 59//11 53//11
f 47//12 58//12 56//12 44//12
