# Blender MTL File: 'frigate_c1.blend'
# Material Count: 2

newmtl Body
Ns 96.078431
Ka 1.000000 1.000000 1.000000
Kd 0.100000 0.100000 0.100000
Ks 0.000000 0.000000 0.000000
Ke 0.000000 0.000000 0.000000
Ni 1.000000
d 1.000000
illum 2

newmtl Highlight
Ns 96.078431
Ka 1.000000 1.000000 1.000000
Kd 0.000000 0.000000 0.400000
Ks 0.000000 0.000000 0.000000
Ke 0.000000 0.000000 0.000000
Ni 1.000000
d 1.000000
illum 2
