# Blender v2.75 (sub 0) OBJ File: 'hex_shield.blend'
# www.blender.org
mtllib hex_shield.mtl
o Cube.008_Cube.010
v -8.500000 -7.355288 -1.152572
v -8.500000 -5.276827 0.047428
v -8.500000 -7.242788 -1.347428
v -8.500000 -5.164327 -0.147428
v -5.500000 -7.355288 -1.152572
v -5.500000 -5.276827 0.047428
v -5.500000 -7.242788 -1.347428
v -5.500000 -5.164327 -0.147428
vn -1.000000 -0.000000 0.000000
vn 0.000000 0.500000 -0.866000
vn 1.000000 0.000000 0.000000
vn 0.000000 -0.500000 0.866000
vn 0.000000 -0.866000 -0.500000
vn 0.000000 0.866000 0.500000
usemtl Gray
s off
f 2//1 4//1 3//1 1//1
f 4//2 8//2 7//2 3//2
f 8//3 6//3 5//3 7//3
f 6//4 2//4 1//4 5//4
f 1//5 3//5 7//5 5//5
f 6//6 8//6 4//6 2//6
o Cube.007_Cube.009
v 5.500000 -7.355288 -1.152572
v 5.500000 -5.276827 0.047428
v 5.500000 -7.242788 -1.347428
v 5.500000 -5.164327 -0.147428
v 8.500000 -7.355288 -1.152572
v 8.500000 -5.276827 0.047428
v 8.500000 -7.242788 -1.347428
v 8.500000 -5.164327 -0.147428
vn -1.000000 0.000000 0.000000
vn 0.000000 0.500000 -0.866000
vn 1.000000 -0.000000 0.000000
vn 0.000000 -0.500000 0.866000
vn 0.000000 -0.866000 -0.500000
vn 0.000000 0.866000 0.500000
usemtl Gray
s off
f 10//7 12//7 11//7 9//7
f 12//8 16//8 15//8 11//8
f 16//9 14//9 13//9 15//9
f 14//10 10//10 9//10 13//10
f 9//11 11//11 15//11 13//11
f 14//12 16//12 12//12 10//12
o Cube.006_Cube.008
v -8.500000 5.276827 0.047428
v -8.500000 7.355288 -1.152572
v -8.500000 5.164327 -0.147428
v -8.500000 7.242788 -1.347428
v -5.500000 5.276827 0.047428
v -5.500000 7.355288 -1.152572
v -5.500000 5.164327 -0.147428
v -5.500000 7.242788 -1.347428
vn -1.000000 -0.000000 0.000000
vn 0.000000 -0.500000 -0.866000
vn 1.000000 0.000000 0.000000
vn 0.000000 0.500000 0.866000
vn 0.000000 -0.866000 0.500000
vn 0.000000 0.866000 -0.500000
usemtl Gray
s off
f 18//13 20//13 19//13 17//13
f 20//14 24//14 23//14 19//14
f 24//15 22//15 21//15 23//15
f 22//16 18//16 17//16 21//16
f 17//17 19//17 23//17 21//17
f 22//18 24//18 20//18 18//18
o Cube.005_Cube.007
v 5.500000 5.276827 0.047428
v 5.500000 7.355288 -1.152572
v 5.500000 5.164327 -0.147428
v 5.500000 7.242788 -1.347428
v 8.500000 5.276827 0.047428
v 8.500000 7.355288 -1.152572
v 8.500000 5.164327 -0.147428
v 8.500000 7.242788 -1.347428
vn -1.000000 0.000000 0.000000
vn 0.000000 -0.500000 -0.866000
vn 1.000000 -0.000000 0.000000
vn 0.000000 0.500000 0.866000
vn 0.000000 -0.866000 0.500000
vn 0.000000 0.866000 -0.500000
usemtl Gray
s off
f 26//19 28//19 27//19 25//19
f 28//20 32//20 31//20 27//20
f 32//21 30//21 29//21 31//21
f 30//22 26//22 25//22 29//22
f 25//23 27//23 31//23 29//23
f 30//24 32//24 28//24 26//24
o Cube.004_Cube.006
v 12.276827 -1.500000 0.047428
v 12.276827 1.500000 0.047428
v 12.164328 -1.500000 -0.147428
v 12.164328 1.500000 -0.147428
v 14.355288 -1.500000 -1.152572
v 14.355288 1.500000 -1.152572
v 14.242788 -1.500000 -1.347428
v 14.242788 1.500000 -1.347428
vn -0.866000 0.000000 0.500000
vn -0.500000 0.000000 -0.866000
vn 0.866000 0.000000 -0.500000
vn 0.500000 0.000000 0.866000
vn 0.000000 -1.000000 0.000000
vn 0.000000 1.000000 0.000000
usemtl Gray
s off
f 34//25 36//25 35//25 33//25
f 36//26 40//26 39//26 35//26
f 40//27 38//27 37//27 39//27
f 38//28 34//28 33//28 37//28
f 33//29 35//29 39//29 37//29
f 38//30 40//30 36//30 34//30
o Cube.003_Cube.005
v -14.355288 -1.500000 -1.152572
v -14.355288 1.500000 -1.152572
v -14.242788 -1.500000 -1.347428
v -14.242788 1.500000 -1.347428
v -12.276827 -1.500000 0.047428
v -12.276827 1.500000 0.047428
v -12.164328 -1.500000 -0.147428
v -12.164328 1.500000 -0.147428
vn -0.866000 0.000000 -0.500000
vn 0.500000 0.000000 -0.866000
vn 0.866000 0.000000 0.500000
vn -0.500000 0.000000 0.866000
vn 0.000000 -1.000000 0.000000
vn 0.000000 1.000000 0.000000
usemtl Gray
s off
f 42//31 44//31 43//31 41//31
f 44//32 48//32 47//32 43//32
f 48//33 46//33 45//33 47//33
f 46//34 42//34 41//34 45//34
f 41//35 43//35 47//35 45//35
f 46//36 48//36 44//36 42//36
o Plane.007
v 14.669872 -5.000000 -1.500000
v 23.330128 -5.000000 -6.499999
v 14.669872 5.000000 -1.500001
v 23.330128 5.000000 -6.500000
v 14.236860 -5.000000 -1.250000
v 14.236860 5.000000 -1.250001
v 23.763140 -5.000000 -6.749999
v 23.763140 5.000000 -6.750000
v 14.669872 5.500000 -1.500001
v 23.330128 5.500000 -6.500000
v 14.669872 -5.500000 -1.500000
v 23.330128 -5.500000 -6.499999
v 14.719872 5.000000 -1.413398
v 14.719873 -5.000000 -1.413397
v 23.380127 -5.000000 -6.413397
v 23.380127 5.000000 -6.413398
v 14.286860 5.000000 -1.163398
v 14.286860 -5.000000 -1.163397
v 23.813141 -5.000000 -6.663397
v 23.813139 5.000000 -6.663398
v 23.380127 5.500000 -6.413398
v 14.719872 5.500000 -1.413398
v 14.719873 -5.500000 -1.413397
v 23.380127 -5.500000 -6.413397
v 23.330128 -5.000000 -6.500000
v 14.669872 -5.000000 -1.500001
v 23.330128 5.000000 -6.499999
v 14.669872 5.000000 -1.500000
v 14.619873 5.000000 -1.586603
v 14.619873 -5.000000 -1.586602
v 23.280128 -5.000000 -6.586602
v 23.280127 5.000000 -6.586603
v 14.186860 5.000000 -1.336603
v 14.186861 -5.000000 -1.336602
v 23.713140 -5.000000 -6.836602
v 23.713139 5.000000 -6.836603
v 23.280127 5.500000 -6.586603
v 14.619873 5.500000 -1.586603
v 14.619873 -5.500000 -1.586602
v 23.280128 -5.500000 -6.586602
v 23.280127 -5.000000 -6.586602
v 14.619872 -5.000000 -1.586604
vt -3.531532 -2.000000
vt 5.297297 -2.000000
vt 5.297297 3.000000
vt -3.531532 3.000000
vt 0.000000 0.000000
vt 1.000000 0.000000
vt 1.000000 1.000000
vt 0.000000 1.000000
vn 0.500000 0.000000 0.866000
vn -0.500000 0.000000 -0.866000
vn 0.000000 -1.000000 0.000000
vn 0.000000 1.000000 0.000000
vn 0.612400 0.707100 -0.353600
vn 0.866000 -0.000000 -0.500000
vn -0.866000 0.000000 0.500000
vn -0.612400 -0.707100 0.353600
vn -0.612400 0.707100 0.353600
vn 0.612400 -0.707100 -0.353600
usemtl Hex
s off
f 49/1/37 50/2/37 52/3/37 51/4/37
f 73/1/38 74/2/38 76/3/38 75/4/38
usemtl Hex_NONE
f 60/5/39 72/5/39 71/5/39 59/5/39 87/5/39 88/5/39
f 49/5/39 53/5/39 82/5/39 78/5/39
f 53/5/40 74/5/40 90/5/40 82/5/40
f 55/5/39 50/6/39 79/5/39 83/5/39
f 73/5/40 55/5/40 83/5/40 89/1/40
f 58/5/41 69/5/41 68/5/41 56/5/41 84/5/41 85/5/41
usemtl Gray_Hex.png
f 49/5/42 51/6/42 61/7/42 62/8/42
f 51/5/39 52/6/39 64/7/39 61/8/39
f 50/5/40 49/6/40 62/7/40 63/8/40
f 52/5/43 50/6/43 63/7/43 64/8/43
f 51/5/42 49/6/42 78/7/42 77/8/42
f 74/5/40 73/6/40 89/7/40 90/8/40
f 50/5/43 52/6/43 80/7/43 79/8/43
f 52/5/39 51/6/39 77/7/39 80/8/39
usemtl Gray
f 59/5/44 71/5/44 66/5/44 53/5/44 82/5/44 87/5/44
f 64/3/37 63/2/37 67/5/37 68/5/37 69/5/37 70/5/37 65/5/37 66/5/37 62/1/37 61/5/37
f 84/5/38 83/5/38 79/5/38 80/5/38 77/5/38 78/5/38 82/5/38 81/5/38 86/5/38 85/5/38
f 67/5/37 63/2/37 62/1/37 66/5/37 71/5/37 72/5/37
f 54/5/45 65/5/45 70/5/45 57/5/45 86/5/45 81/5/45
f 53/5/43 66/5/43 65/5/43 54/5/43 81/5/43 82/5/43
f 55/5/46 67/5/46 72/5/46 60/5/46 88/5/46 83/5/46
f 57/5/40 70/5/40 69/5/40 58/5/40 85/5/40 86/5/40
f 56/5/42 68/5/42 67/5/42 55/5/42 83/5/42 84/5/42
f 87/5/38 82/5/38 90/1/38 89/5/38 83/5/38 88/5/38
o Plane.006
v -23.330128 -5.000000 -6.500000
v -14.669874 -5.000000 -1.499999
v -23.330126 5.000000 -6.500001
v -14.669872 5.000000 -1.500000
v -23.763140 -5.000000 -6.750000
v -23.763138 5.000000 -6.750001
v -14.236861 -5.000000 -1.249999
v -14.236860 5.000000 -1.250000
v -23.330126 5.500000 -6.500001
v -14.669872 5.500000 -1.500000
v -23.330128 -5.500000 -6.500000
v -14.669874 -5.500000 -1.499999
v -23.380127 5.000000 -6.413398
v -23.380127 -5.000000 -6.413398
v -14.719873 -5.000000 -1.413397
v -14.719873 5.000000 -1.413397
v -23.813139 5.000000 -6.663399
v -23.813139 -5.000000 -6.663398
v -14.286861 -5.000000 -1.163396
v -14.286860 5.000000 -1.163397
v -14.719873 5.500000 -1.413397
v -23.380127 5.500000 -6.413398
v -23.380127 -5.500000 -6.413398
v -14.719873 -5.500000 -1.413397
v -14.669873 -5.000000 -1.500000
v -23.330126 -5.000000 -6.500001
v -14.669874 5.000000 -1.499999
v -23.330128 5.000000 -6.500000
v -23.280127 5.000000 -6.586603
v -23.280127 -5.000000 -6.586603
v -14.619873 -5.000000 -1.586602
v -14.619873 5.000000 -1.586602
v -23.713139 5.000000 -6.836604
v -23.713139 -5.000000 -6.836603
v -14.186861 -5.000000 -1.336601
v -14.186861 5.000000 -1.336602
v -14.619873 5.500000 -1.586602
v -23.280127 5.500000 -6.586603
v -23.280127 -5.500000 -6.586603
v -14.619873 -5.500000 -1.586602
v -14.619873 -5.000000 -1.586602
v -23.280127 -5.000000 -6.586604
vt -3.531532 -2.000000
vt 5.297297 -2.000000
vt 5.297297 3.000000
vt -3.531532 3.000000
vt 0.000000 0.000000
vt 1.000000 0.000000
vt 1.000000 1.000000
vt 0.000000 1.000000
vn -0.500000 0.000000 0.866000
vn 0.500000 0.000000 -0.866000
vn 0.000000 -1.000000 -0.000000
vn 0.000000 1.000000 0.000000
vn 0.612400 0.707100 0.353600
vn 0.866000 -0.000000 0.500000
vn -0.866000 0.000000 -0.500000
vn -0.612400 -0.707100 -0.353600
vn -0.612400 0.707100 -0.353600
vn 0.612400 -0.707100 0.353600
usemtl Hex
s off
f 91/9/47 92/10/47 94/11/47 93/12/47
f 115/9/48 116/10/48 118/11/48 117/12/48
usemtl Hex_NONE
f 102/13/49 114/13/49 113/13/49 101/13/49 129/13/49 130/13/49
f 91/13/49 95/13/49 124/13/49 120/13/49
f 95/13/50 116/13/50 132/13/50 124/13/50
f 97/13/49 92/14/49 121/13/49 125/13/49
f 115/13/50 97/13/50 125/13/50 131/9/50
f 100/13/51 111/13/51 110/13/51 98/13/51 126/13/51 127/13/51
usemtl Gray_Hex.png
f 91/13/52 93/14/52 103/15/52 104/16/52
f 93/13/49 94/14/49 106/15/49 103/16/49
f 92/13/50 91/14/50 104/15/50 105/16/50
f 94/13/53 92/14/53 105/15/53 106/16/53
f 93/13/52 91/14/52 120/15/52 119/16/52
f 116/13/50 115/14/50 131/15/50 132/16/50
f 92/13/53 94/14/53 122/15/53 121/16/53
f 94/13/49 93/14/49 119/15/49 122/16/49
usemtl Gray
f 101/13/54 113/13/54 108/13/54 95/13/54 124/13/54 129/13/54
f 106/11/47 105/10/47 109/13/47 110/13/47 111/13/47 112/13/47 107/13/47 108/13/47 104/9/47 103/13/47
f 126/13/48 125/13/48 121/13/48 122/13/48 119/13/48 120/13/48 124/13/48 123/13/48 128/13/48 127/13/48
f 109/13/47 105/10/47 104/9/47 108/13/47 113/13/47 114/13/47
f 96/13/55 107/13/55 112/13/55 99/13/55 128/13/55 123/13/55
f 95/13/53 108/13/53 107/13/53 96/13/53 123/13/53 124/13/53
f 97/13/56 109/13/56 114/13/56 102/13/56 130/13/56 125/13/56
f 99/13/50 112/13/50 111/13/50 100/13/50 127/13/50 128/13/50
f 98/13/52 110/13/52 109/13/52 97/13/52 125/13/52 126/13/52
f 129/13/48 124/13/48 132/9/48 131/13/48 125/13/48 130/13/48
o Cube.002_Cube.004
v -1.500000 -13.355289 -4.652572
v -1.500000 -10.757212 -3.152572
v -1.500000 -13.242788 -4.847428
v -1.500000 -10.644711 -3.347428
v 1.500000 -13.355289 -4.652572
v 1.500000 -10.757212 -3.152572
v 1.500000 -13.242788 -4.847428
v 1.500000 -10.644711 -3.347428
vn -1.000000 0.000000 0.000000
vn 0.000000 0.500000 -0.866000
vn 1.000000 0.000000 0.000000
vn 0.000000 -0.500000 0.866000
vn 0.000000 -0.866000 -0.500000
vn 0.000000 0.866000 0.500000
usemtl Gray
s off
f 134//57 136//57 135//57 133//57
f 136//58 140//58 139//58 135//58
f 140//59 138//59 137//59 139//59
f 138//60 134//60 133//60 137//60
f 133//61 135//61 139//61 137//61
f 138//62 140//62 136//62 134//62
o Plane.005
v -12.000000 -16.330128 -6.499999
v -2.000000 -16.330128 -6.499999
v -12.000000 -7.669873 -1.500001
v -2.000000 -7.669873 -1.500001
v -12.500000 -16.330128 -6.499999
v -12.500000 -7.669873 -1.500001
v -1.500000 -16.330128 -6.499999
v -1.500000 -7.669873 -1.500001
v -12.000000 -7.236860 -1.250001
v -2.000000 -7.236860 -1.250001
v -12.000000 -16.763140 -6.749999
v -2.000000 -16.763140 -6.749999
v -12.000000 -7.719872 -1.413398
v -12.000000 -16.380127 -6.413397
v -2.000000 -16.380127 -6.413397
v -2.000000 -7.719872 -1.413398
v -12.500000 -7.719872 -1.413398
v -12.500000 -16.380127 -6.413397
v -1.500000 -16.380127 -6.413397
v -1.500000 -7.719872 -1.413398
v -2.000000 -7.286860 -1.163398
v -12.000000 -7.286860 -1.163398
v -12.000000 -16.813141 -6.663397
v -2.000000 -16.813141 -6.663397
v -2.000000 -16.330128 -6.500000
v -12.000000 -16.330128 -6.500000
v -2.000000 -7.669873 -1.500000
v -12.000000 -7.669873 -1.500000
v -12.000000 -7.619873 -1.586603
v -12.000000 -16.280128 -6.586602
v -2.000000 -16.280128 -6.586602
v -2.000000 -7.619873 -1.586603
v -12.500000 -7.619873 -1.586603
v -12.500000 -16.280128 -6.586602
v -1.500000 -16.280128 -6.586602
v -1.500000 -7.619873 -1.586603
v -2.000000 -7.186860 -1.336603
v -12.000000 -7.186860 -1.336603
v -12.000000 -16.713140 -6.836602
v -2.000000 -16.713140 -6.836602
v -2.000000 -16.280127 -6.586602
v -12.000000 -16.280127 -6.586603
vt -3.531532 -2.000000
vt 5.297297 -2.000000
vt 5.297297 3.000000
vt -3.531532 3.000000
vt 0.000000 0.000000
vt 1.000000 0.000000
vt 1.000000 1.000000
vt 0.000000 1.000000
vn 0.000000 -0.500000 0.866000
vn 0.000000 0.500000 -0.866000
vn -0.000000 -0.866000 -0.500000
vn -0.000000 0.866000 0.500000
vn 0.707100 0.612400 0.353600
vn 1.000000 -0.000000 0.000000
vn -1.000000 0.000000 0.000000
vn -0.707100 -0.612400 -0.353500
vn -0.707100 0.612400 0.353600
vn 0.707100 -0.612400 -0.353500
usemtl Hex
s off
f 141/17/63 142/18/63 144/19/63 143/20/63
f 165/17/64 166/18/64 168/19/64 167/20/64
usemtl Hex_NONE
f 152/21/65 164/21/65 163/21/65 151/21/65 179/21/65 180/21/65
f 141/21/65 145/21/65 174/21/65 170/21/65
f 145/21/66 166/21/66 182/21/66 174/21/66
f 147/21/65 142/22/65 171/21/65 175/21/65
f 165/21/66 147/21/66 175/21/66 181/17/66
f 150/21/67 161/21/67 160/21/67 148/21/67 176/21/67 177/21/67
usemtl Gray_Hex.png
f 141/21/68 143/22/68 153/23/68 154/24/68
f 143/21/65 144/22/65 156/23/65 153/24/65
f 142/21/66 141/22/66 154/23/66 155/24/66
f 144/21/69 142/22/69 155/23/69 156/24/69
f 143/21/68 141/22/68 170/23/68 169/24/68
f 166/21/66 165/22/66 181/23/66 182/24/66
f 142/21/69 144/22/69 172/23/69 171/24/69
f 144/21/65 143/22/65 169/23/65 172/24/65
usemtl Gray
f 151/21/70 163/21/70 158/21/70 145/21/70 174/21/70 179/21/70
f 156/19/63 155/18/63 159/21/63 160/21/63 161/21/63 162/21/63 157/21/63 158/21/63 154/17/63 153/21/63
f 176/21/64 175/21/64 171/21/64 172/21/64 169/21/64 170/21/64 174/21/64 173/21/64 178/21/64 177/21/64
f 159/21/63 155/18/63 154/17/63 158/21/63 163/21/63 164/21/63
f 146/21/71 157/21/71 162/21/71 149/21/71 178/21/71 173/21/71
f 145/21/69 158/21/69 157/21/69 146/21/69 173/21/69 174/21/69
f 147/21/72 159/21/72 164/21/72 152/21/72 180/21/72 175/21/72
f 149/21/66 162/21/66 161/21/66 150/21/66 177/21/66 178/21/66
f 148/21/68 160/21/68 159/21/68 147/21/68 175/21/68 176/21/68
f 179/21/64 174/21/64 182/17/64 181/21/64 175/21/64 180/21/64
o Plane.004
v 2.000000 -16.330128 -6.499999
v 12.000000 -16.330128 -6.499999
v 2.000000 -7.669873 -1.500001
v 12.000000 -7.669873 -1.500001
v 1.500000 -16.330128 -6.499999
v 1.500000 -7.669873 -1.500001
v 12.500000 -16.330128 -6.499999
v 12.500000 -7.669873 -1.500001
v 2.000000 -7.236860 -1.250001
v 12.000000 -7.236860 -1.250001
v 2.000000 -16.763140 -6.749999
v 12.000000 -16.763140 -6.749999
v 2.000000 -7.719872 -1.413398
v 2.000000 -16.380127 -6.413397
v 12.000000 -16.380127 -6.413397
v 12.000000 -7.719872 -1.413398
v 1.500000 -7.719872 -1.413398
v 1.500000 -16.380127 -6.413397
v 12.500000 -16.380127 -6.413397
v 12.500000 -7.719872 -1.413398
v 12.000000 -7.286860 -1.163398
v 2.000000 -7.286860 -1.163398
v 2.000000 -16.813141 -6.663397
v 12.000000 -16.813141 -6.663397
v 12.000000 -16.330128 -6.500000
v 2.000000 -16.330128 -6.500000
v 12.000000 -7.669873 -1.500000
v 2.000000 -7.669873 -1.500000
v 2.000000 -7.619873 -1.586603
v 2.000000 -16.280128 -6.586602
v 12.000000 -16.280128 -6.586602
v 12.000000 -7.619873 -1.586603
v 1.500000 -7.619873 -1.586603
v 1.500000 -16.280128 -6.586602
v 12.500000 -16.280128 -6.586602
v 12.500000 -7.619873 -1.586603
v 12.000000 -7.186860 -1.336603
v 2.000000 -7.186860 -1.336603
v 2.000000 -16.713140 -6.836602
v 12.000000 -16.713140 -6.836602
v 12.000000 -16.280127 -6.586602
v 2.000000 -16.280127 -6.586603
vt -3.531532 -2.000000
vt 5.297297 -2.000000
vt 5.297297 3.000000
vt -3.531532 3.000000
vt 0.000000 0.000000
vt 1.000000 0.000000
vt 1.000000 1.000000
vt 0.000000 1.000000
vn 0.000000 -0.500000 0.866000
vn 0.000000 0.500000 -0.866000
vn -0.000000 -0.866000 -0.500000
vn -0.000000 0.866000 0.500000
vn 0.707100 0.612400 0.353600
vn 1.000000 0.000000 0.000000
vn -1.000000 -0.000000 0.000000
vn -0.707100 -0.612400 -0.353500
vn -0.707100 0.612400 0.353600
vn 0.707100 -0.612400 -0.353500
usemtl Hex
s off
f 183/25/73 184/26/73 186/27/73 185/28/73
f 207/25/74 208/26/74 210/27/74 209/28/74
usemtl Hex_NONE
f 194/29/75 206/29/75 205/29/75 193/29/75 221/29/75 222/29/75
f 183/29/75 187/29/75 216/29/75 212/29/75
f 187/29/76 208/29/76 224/29/76 216/29/76
f 189/29/75 184/30/75 213/29/75 217/29/75
f 207/29/76 189/29/76 217/29/76 223/25/76
f 192/29/77 203/29/77 202/29/77 190/29/77 218/29/77 219/29/77
usemtl Gray_Hex.png
f 183/29/78 185/30/78 195/31/78 196/32/78
f 185/29/75 186/30/75 198/31/75 195/32/75
f 184/29/76 183/30/76 196/31/76 197/32/76
f 186/29/79 184/30/79 197/31/79 198/32/79
f 185/29/78 183/30/78 212/31/78 211/32/78
f 208/29/76 207/30/76 223/31/76 224/32/76
f 184/29/79 186/30/79 214/31/79 213/32/79
f 186/29/75 185/30/75 211/31/75 214/32/75
usemtl Gray
f 193/29/80 205/29/80 200/29/80 187/29/80 216/29/80 221/29/80
f 198/27/73 197/26/73 201/29/73 202/29/73 203/29/73 204/29/73 199/29/73 200/29/73 196/25/73 195/29/73
f 218/29/74 217/29/74 213/29/74 214/29/74 211/29/74 212/29/74 216/29/74 215/29/74 220/29/74 219/29/74
f 201/29/73 197/26/73 196/25/73 200/29/73 205/29/73 206/29/73
f 188/29/81 199/29/81 204/29/81 191/29/81 220/29/81 215/29/81
f 187/29/79 200/29/79 199/29/79 188/29/79 215/29/79 216/29/79
f 189/29/82 201/29/82 206/29/82 194/29/82 222/29/82 217/29/82
f 191/29/76 204/29/76 203/29/76 192/29/76 219/29/76 220/29/76
f 190/29/78 202/29/78 201/29/78 189/29/78 217/29/78 218/29/78
f 221/29/74 216/29/74 224/25/74 223/29/74 217/29/74 222/29/74
o Plane.003
v 2.000000 7.669874 -1.499999
v 12.000000 7.669874 -1.499999
v 2.000000 16.330126 -6.500001
v 12.000000 16.330126 -6.500001
v 1.500000 7.669874 -1.499999
v 1.500000 16.330126 -6.500001
v 12.500000 7.669874 -1.499999
v 12.500000 16.330126 -6.500001
v 2.000000 16.763138 -6.750001
v 12.000000 16.763138 -6.750001
v 2.000000 7.236861 -1.249999
v 12.000000 7.236861 -1.249999
v 2.000000 16.380127 -6.413398
v 2.000000 7.719873 -1.413397
v 12.000000 7.719873 -1.413397
v 12.000000 16.380127 -6.413398
v 1.500000 16.380127 -6.413398
v 1.500000 7.719873 -1.413397
v 12.500000 7.719873 -1.413397
v 12.500000 16.380127 -6.413398
v 12.000000 16.813139 -6.663399
v 2.000000 16.813139 -6.663399
v 2.000000 7.286861 -1.163396
v 12.000000 7.286861 -1.163396
v 12.000000 7.669873 -1.500000
v 2.000000 7.669873 -1.500000
v 12.000000 16.330128 -6.500000
v 2.000000 16.330128 -6.500000
v 2.000000 16.280127 -6.586603
v 2.000000 7.619874 -1.586602
v 12.000000 7.619874 -1.586602
v 12.000000 16.280127 -6.586603
v 1.500000 16.280127 -6.586603
v 1.500000 7.619874 -1.586602
v 12.500000 7.619874 -1.586602
v 12.500000 16.280127 -6.586603
v 12.000000 16.713139 -6.836604
v 2.000000 16.713139 -6.836604
v 2.000000 7.186861 -1.336601
v 12.000000 7.186861 -1.336601
v 12.000000 7.619873 -1.586602
v 2.000000 7.619873 -1.586603
vt -3.531532 -2.000000
vt 5.297297 -2.000000
vt 5.297297 3.000000
vt -3.531532 3.000000
vt 0.000000 0.000000
vt 1.000000 0.000000
vt 1.000000 1.000000
vt 0.000000 1.000000
vn 0.000000 0.500000 0.866000
vn 0.000000 -0.500000 -0.866000
vn 0.000000 -0.866000 0.500000
vn 0.000000 0.866000 -0.500000
vn 0.707100 0.612400 -0.353600
vn 1.000000 -0.000000 0.000000
vn -1.000000 0.000000 0.000000
vn -0.707100 -0.612400 0.353600
vn -0.707100 0.612400 -0.353600
vn 0.707100 -0.612400 0.353600
usemtl Hex
s off
f 225/33/83 226/34/83 228/35/83 227/36/83
f 249/33/84 250/34/84 252/35/84 251/36/84
usemtl Hex_NONE
f 236/37/85 248/37/85 247/37/85 235/37/85 263/37/85 264/37/85
f 225/37/85 229/37/85 258/37/85 254/37/85
f 229/37/86 250/37/86 266/37/86 258/37/86
f 231/37/85 226/38/85 255/37/85 259/37/85
f 249/37/86 231/37/86 259/37/86 265/33/86
f 234/37/87 245/37/87 244/37/87 232/37/87 260/37/87 261/37/87
usemtl Gray_Hex.png
f 225/37/88 227/38/88 237/39/88 238/40/88
f 227/37/85 228/38/85 240/39/85 237/40/85
f 226/37/86 225/38/86 238/39/86 239/40/86
f 228/37/89 226/38/89 239/39/89 240/40/89
f 227/37/88 225/38/88 254/39/88 253/40/88
f 250/37/86 249/38/86 265/39/86 266/40/86
f 226/37/89 228/38/89 256/39/89 255/40/89
f 228/37/85 227/38/85 253/39/85 256/40/85
usemtl Gray
f 235/37/90 247/37/90 242/37/90 229/37/90 258/37/90 263/37/90
f 240/35/83 239/34/83 243/37/83 244/37/83 245/37/83 246/37/83 241/37/83 242/37/83 238/33/83 237/37/83
f 260/37/84 259/37/84 255/37/84 256/37/84 253/37/84 254/37/84 258/37/84 257/37/84 262/37/84 261/37/84
f 243/37/83 239/34/83 238/33/83 242/37/83 247/37/83 248/37/83
f 230/37/91 241/37/91 246/37/91 233/37/91 262/37/91 257/37/91
f 229/37/89 242/37/89 241/37/89 230/37/89 257/37/89 258/37/89
f 231/37/92 243/37/92 248/37/92 236/37/92 264/37/92 259/37/92
f 233/37/86 246/37/86 245/37/86 234/37/86 261/37/86 262/37/86
f 232/37/88 244/37/88 243/37/88 231/37/88 259/37/88 260/37/88
f 263/37/84 258/37/84 266/33/84 265/37/84 259/37/84 264/37/84
o Plane.002
v -12.000000 7.669874 -1.499999
v -2.000000 7.669874 -1.499999
v -12.000000 16.330126 -6.500001
v -2.000000 16.330126 -6.500001
v -12.500000 7.669874 -1.499999
v -12.500000 16.330126 -6.500001
v -1.500000 7.669874 -1.499999
v -1.500000 16.330126 -6.500001
v -12.000000 16.763138 -6.750001
v -2.000000 16.763138 -6.750001
v -12.000000 7.236861 -1.249999
v -2.000000 7.236861 -1.249999
v -12.000000 16.380127 -6.413398
v -12.000000 7.719873 -1.413397
v -2.000000 7.719873 -1.413397
v -2.000000 16.380127 -6.413398
v -12.500000 16.380127 -6.413398
v -12.500000 7.719873 -1.413397
v -1.500000 7.719873 -1.413397
v -1.500000 16.380127 -6.413398
v -2.000000 16.813139 -6.663399
v -12.000000 16.813139 -6.663399
v -12.000000 7.286861 -1.163396
v -2.000000 7.286861 -1.163396
v -2.000000 7.669873 -1.500000
v -12.000000 7.669873 -1.500000
v -2.000000 16.330128 -6.500000
v -12.000000 16.330128 -6.500000
v -12.000000 16.280127 -6.586603
v -12.000000 7.619874 -1.586602
v -2.000000 7.619874 -1.586602
v -2.000000 16.280127 -6.586603
v -12.500000 16.280127 -6.586603
v -12.500000 7.619874 -1.586602
v -1.500000 7.619874 -1.586602
v -1.500000 16.280127 -6.586603
v -2.000000 16.713139 -6.836604
v -12.000000 16.713139 -6.836604
v -12.000000 7.186861 -1.336601
v -2.000000 7.186861 -1.336601
v -2.000000 7.619873 -1.586602
v -12.000000 7.619873 -1.586603
vt -3.531532 -2.000000
vt 5.297297 -2.000000
vt 5.297297 3.000000
vt -3.531532 3.000000
vt 0.000000 0.000000
vt 1.000000 0.000000
vt 1.000000 1.000000
vt 0.000000 1.000000
vn 0.000000 0.500000 0.866000
vn 0.000000 -0.500000 -0.866000
vn 0.000000 -0.866000 0.500000
vn 0.000000 0.866000 -0.500000
vn 0.707100 0.612400 -0.353600
vn 1.000000 0.000000 0.000000
vn -1.000000 0.000000 0.000000
vn -0.707100 -0.612400 0.353600
vn -0.707100 0.612400 -0.353600
vn 0.707100 -0.612400 0.353600
usemtl Hex
s off
f 267/41/93 268/42/93 270/43/93 269/44/93
f 291/41/94 292/42/94 294/43/94 293/44/94
usemtl Hex_NONE
f 278/45/95 290/45/95 289/45/95 277/45/95 305/45/95 306/45/95
f 267/45/95 271/45/95 300/45/95 296/45/95
f 271/45/96 292/45/96 308/45/96 300/45/96
f 273/45/95 268/46/95 297/45/95 301/45/95
f 291/45/96 273/45/96 301/45/96 307/41/96
f 276/45/97 287/45/97 286/45/97 274/45/97 302/45/97 303/45/97
usemtl Gray_Hex.png
f 267/45/98 269/46/98 279/47/98 280/48/98
f 269/45/95 270/46/95 282/47/95 279/48/95
f 268/45/96 267/46/96 280/47/96 281/48/96
f 270/45/99 268/46/99 281/47/99 282/48/99
f 269/45/98 267/46/98 296/47/98 295/48/98
f 292/45/96 291/46/96 307/47/96 308/48/96
f 268/45/99 270/46/99 298/47/99 297/48/99
f 270/45/95 269/46/95 295/47/95 298/48/95
usemtl Gray
f 277/45/100 289/45/100 284/45/100 271/45/100 300/45/100 305/45/100
f 282/43/93 281/42/93 285/45/93 286/45/93 287/45/93 288/45/93 283/45/93 284/45/93 280/41/93 279/45/93
f 302/45/94 301/45/94 297/45/94 298/45/94 295/45/94 296/45/94 300/45/94 299/45/94 304/45/94 303/45/94
f 285/45/93 281/42/93 280/41/93 284/45/93 289/45/93 290/45/93
f 272/45/101 283/45/101 288/45/101 275/45/101 304/45/101 299/45/101
f 271/45/99 284/45/99 283/45/99 272/45/99 299/45/99 300/45/99
f 273/45/102 285/45/102 290/45/102 278/45/102 306/45/102 301/45/102
f 275/45/96 288/45/96 287/45/96 276/45/96 303/45/96 304/45/96
f 274/45/98 286/45/98 285/45/98 273/45/98 301/45/98 302/45/98
f 305/45/94 300/45/94 308/41/94 307/45/94 301/45/94 306/45/94
o Cube.001_Cube.003
v -1.500000 10.757212 -3.152572
v -1.500000 13.355288 -4.652573
v -1.500000 10.644712 -3.347428
v -1.500000 13.242788 -4.847428
v 1.500000 10.757212 -3.152572
v 1.500000 13.355288 -4.652573
v 1.500000 10.644712 -3.347428
v 1.500000 13.242788 -4.847428
vn -1.000000 0.000000 0.000000
vn 0.000000 -0.500000 -0.866000
vn 1.000000 0.000000 0.000000
vn 0.000000 0.500000 0.866000
vn 0.000000 -0.866000 0.500000
vn 0.000000 0.866000 -0.500000
usemtl Gray
s off
f 310//103 312//103 311//103 309//103
f 312//104 316//104 315//104 311//104
f 316//105 314//105 313//105 315//105
f 314//106 310//106 309//106 313//106
f 309//107 311//107 315//107 313//107
f 314//108 316//108 312//108 310//108
o Cube_Cube.002
v -1.500000 -1.500000 0.112500
v -1.500000 1.500000 0.112500
v -1.500000 -1.500000 -0.112500
v -1.500000 1.500000 -0.112500
v 1.500000 -1.500000 0.112500
v 1.500000 1.500000 0.112500
v 1.500000 -1.500000 -0.112500
v 1.500000 1.500000 -0.112500
vn -1.000000 0.000000 0.000000
vn 0.000000 0.000000 -1.000000
vn 1.000000 0.000000 0.000000
vn 0.000000 0.000000 1.000000
vn 0.000000 -1.000000 0.000000
vn 0.000000 1.000000 0.000000
usemtl Gray
s off
f 318//109 320//109 319//109 317//109
f 320//110 324//110 323//110 319//110
f 324//111 322//111 321//111 323//111
f 322//112 318//112 317//112 321//112
f 317//113 319//113 323//113 321//113
f 322//114 324//114 320//114 318//114
o Plane.001
v -12.000000 -5.000000 0.000000
v -2.000000 -5.000000 0.000000
v -12.000000 5.000000 -0.000000
v -2.000000 5.000000 -0.000000
v -12.500000 -5.000000 0.000000
v -12.500000 5.000000 -0.000000
v -1.500000 -5.000000 0.000000
v -1.500000 5.000000 -0.000000
v -12.000000 5.500000 -0.000000
v -2.000000 5.500000 -0.000000
v -12.000000 -5.500000 0.000000
v -2.000000 -5.500000 0.000000
v -12.000000 5.000000 0.100000
v -12.000000 -5.000000 0.100000
v -2.000000 -5.000000 0.100000
v -2.000000 5.000000 0.100000
v -12.500000 5.000000 0.100000
v -12.500000 -5.000000 0.100000
v -1.500000 -5.000000 0.100000
v -1.500000 5.000000 0.100000
v -2.000000 5.500000 0.100000
v -12.000000 5.500000 0.100000
v -12.000000 -5.500000 0.100000
v -2.000000 -5.500000 0.100000
v -2.000000 -5.000000 -0.000000
v -12.000000 -5.000000 -0.000001
v -2.000000 5.000000 0.000001
v -12.000000 5.000000 0.000000
v -12.000000 5.000000 -0.100000
v -12.000000 -5.000000 -0.100000
v -2.000000 -5.000000 -0.100000
v -2.000000 5.000000 -0.100000
v -12.500000 5.000000 -0.100000
v -12.500000 -5.000000 -0.100000
v -1.500000 -5.000000 -0.100000
v -1.500000 5.000000 -0.100000
v -2.000000 5.500000 -0.100000
v -12.000000 5.500000 -0.100000
v -12.000000 -5.500000 -0.100000
v -2.000000 -5.500000 -0.100000
v -2.000000 -5.000000 -0.100000
v -12.000000 -5.000000 -0.100001
vt -3.531532 -2.000000
vt 5.297297 -2.000000
vt 5.297297 3.000000
vt -3.531532 3.000000
vt 0.000000 0.000000
vt 1.000000 0.000000
vt 1.000000 1.000000
vt 0.000000 1.000000
vn 0.000000 0.000000 1.000000
vn 0.000000 0.000000 -1.000000
vn 0.000000 -1.000000 0.000000
vn 0.000000 1.000000 0.000000
vn 0.707100 0.707100 0.000000
vn 1.000000 0.000000 0.000000
vn -1.000000 0.000000 0.000000
vn -0.707100 -0.707100 0.000000
vn -0.707100 0.707100 0.000000
vn 0.707100 -0.707100 0.000000
usemtl Hex
s off
f 325/49/115 326/50/115 328/51/115 327/52/115
f 349/49/116 350/50/116 352/51/116 351/52/116
usemtl Hex_NONE
f 336/53/117 348/53/117 347/53/117 335/53/117 363/53/117 364/53/117
f 325/53/117 329/53/117 358/53/117 354/53/117
f 329/53/118 350/53/118 366/53/118 358/53/118
f 331/53/117 326/54/117 355/53/117 359/53/117
f 349/53/118 331/53/118 359/53/118 365/49/118
f 334/53/119 345/53/119 344/53/119 332/53/119 360/53/119 361/53/119
usemtl Gray_Hex.png
f 325/53/120 327/54/120 337/55/120 338/56/120
f 327/53/117 328/54/117 340/55/117 337/56/117
f 326/53/118 325/54/118 338/55/118 339/56/118
f 328/53/121 326/54/121 339/55/121 340/56/121
f 327/53/120 325/54/120 354/55/120 353/56/120
f 350/53/118 349/54/118 365/55/118 366/56/118
f 326/53/121 328/54/121 356/55/121 355/56/121
f 328/53/117 327/54/117 353/55/117 356/56/117
usemtl Gray
f 335/53/122 347/53/122 342/53/122 329/53/122 358/53/122 363/53/122
f 340/51/115 339/50/115 343/53/115 344/53/115 345/53/115 346/53/115 341/53/115 342/53/115 338/49/115 337/53/115
f 360/53/116 359/53/116 355/53/116 356/53/116 353/53/116 354/53/116 358/53/116 357/53/116 362/53/116 361/53/116
f 343/53/115 339/50/115 338/49/115 342/53/115 347/53/115 348/53/115
f 330/53/123 341/53/123 346/53/123 333/53/123 362/53/123 357/53/123
f 329/53/121 342/53/121 341/53/121 330/53/121 357/53/121 358/53/121
f 331/53/124 343/53/124 348/53/124 336/53/124 364/53/124 359/53/124
f 333/53/118 346/53/118 345/53/118 334/53/118 361/53/118 362/53/118
f 332/53/120 344/53/120 343/53/120 331/53/120 359/53/120 360/53/120
f 363/53/116 358/53/116 366/49/116 365/53/116 359/53/116 364/53/116
o Plane
v 2.000000 -5.000000 0.000000
v 12.000000 -5.000000 0.000000
v 2.000000 5.000000 -0.000000
v 12.000000 5.000000 -0.000000
v 1.500000 -5.000000 0.000000
v 1.500000 5.000000 -0.000000
v 12.500000 -5.000000 0.000000
v 12.500000 5.000000 -0.000000
v 2.000000 5.500000 -0.000000
v 12.000000 5.500000 -0.000000
v 2.000000 -5.500000 0.000000
v 12.000000 -5.500000 0.000000
v 2.000000 5.000000 0.100000
v 2.000000 -5.000000 0.100000
v 12.000000 -5.000000 0.100000
v 12.000000 5.000000 0.100000
v 1.500000 5.000000 0.100000
v 1.500000 -5.000000 0.100000
v 12.500000 -5.000000 0.100000
v 12.500000 5.000000 0.100000
v 12.000000 5.500000 0.100000
v 2.000000 5.500000 0.100000
v 2.000000 -5.500000 0.100000
v 12.000000 -5.500000 0.100000
v 12.000000 -5.000000 -0.000000
v 2.000000 -5.000000 -0.000001
v 12.000000 5.000000 0.000001
v 2.000000 5.000000 0.000000
v 2.000000 5.000000 -0.100000
v 2.000000 -5.000000 -0.100000
v 12.000000 -5.000000 -0.100000
v 12.000000 5.000000 -0.100000
v 1.500000 5.000000 -0.100000
v 1.500000 -5.000000 -0.100000
v 12.500000 -5.000000 -0.100000
v 12.500000 5.000000 -0.100000
v 12.000000 5.500000 -0.100000
v 2.000000 5.500000 -0.100000
v 2.000000 -5.500000 -0.100000
v 12.000000 -5.500000 -0.100000
v 12.000000 -5.000000 -0.100000
v 2.000000 -5.000000 -0.100001
vt -3.531532 -2.000000
vt 5.297297 -2.000000
vt 5.297297 3.000000
vt -3.531532 3.000000
vt 0.000000 0.000000
vt 1.000000 0.000000
vt 1.000000 1.000000
vt 0.000000 1.000000
vn 0.000000 0.000000 1.000000
vn 0.000000 0.000000 -1.000000
vn 0.000000 -1.000000 0.000000
vn 0.000000 1.000000 0.000000
vn 0.707100 0.707100 0.000000
vn 1.000000 0.000000 0.000000
vn -1.000000 0.000000 0.000000
vn -0.707100 -0.707100 0.000000
vn -0.707100 0.707100 0.000000
vn 0.707100 -0.707100 0.000000
usemtl Hex
s off
f 367/57/125 368/58/125 370/59/125 369/60/125
f 391/57/126 392/58/126 394/59/126 393/60/126
usemtl Hex_NONE
f 378/61/127 390/61/127 389/61/127 377/61/127 405/61/127 406/61/127
f 367/61/127 371/61/127 400/61/127 396/61/127
f 371/61/128 392/61/128 408/61/128 400/61/128
f 373/61/127 368/62/127 397/61/127 401/61/127
f 391/61/128 373/61/128 401/61/128 407/57/128
f 376/61/129 387/61/129 386/61/129 374/61/129 402/61/129 403/61/129
usemtl Gray_Hex.png
f 367/61/130 369/62/130 379/63/130 380/64/130
f 369/61/127 370/62/127 382/63/127 379/64/127
f 368/61/128 367/62/128 380/63/128 381/64/128
f 370/61/131 368/62/131 381/63/131 382/64/131
f 369/61/130 367/62/130 396/63/130 395/64/130
f 392/61/128 391/62/128 407/63/128 408/64/128
f 368/61/131 370/62/131 398/63/131 397/64/131
f 370/61/127 369/62/127 395/63/127 398/64/127
usemtl Gray
f 377/61/132 389/61/132 384/61/132 371/61/132 400/61/132 405/61/132
f 382/59/125 381/58/125 385/61/125 386/61/125 387/61/125 388/61/125 383/61/125 384/61/125 380/57/125 379/61/125
f 402/61/126 401/61/126 397/61/126 398/61/126 395/61/126 396/61/126 400/61/126 399/61/126 404/61/126 403/61/126
f 385/61/125 381/58/125 380/57/125 384/61/125 389/61/125 390/61/125
f 372/61/133 383/61/133 388/61/133 375/61/133 404/61/133 399/61/133
f 371/61/131 384/61/131 383/61/131 372/61/131 399/61/131 400/61/131
f 373/61/134 385/61/134 390/61/134 378/61/134 406/61/134 401/61/134
f 375/61/128 388/61/128 387/61/128 376/61/128 403/61/128 404/61/128
f 374/61/130 386/61/130 385/61/130 373/61/130 401/61/130 402/61/130
f 405/61/126 400/61/126 408/57/126 407/61/126 401/61/126 406/61/126
