# Blender MTL File: 'hex_shield.blend'
# Material Count: 4

newmtl Gray
Ns 96.078431
Ka 0.000000 0.000000 0.000000
Kd 0.102592 0.091446 0.091446
Ks 0.500000 0.500000 0.500000
Ni 1.000000
d 1.000000
illum 2

newmtl Gray_Hex.png
Ns 96.078431
Ka 0.000000 0.000000 0.000000
Kd 0.102592 0.091446 0.091446
Ks 0.500000 0.500000 0.500000
Ni 1.000000
d 1.000000
illum 2
map_Kd C:\Users\vincent\Documents\Space Game Unity Port\Assets\textures\Hex.png

newmtl Hex
Ns 96.078431
Ka 0.000000 0.000000 0.000000
Kd 0.640000 0.640000 0.640000
Ks 0.500000 0.500000 0.500000
Ni 1.000000
d 1.000000
illum 2
map_Kd C:\Users\vincent\Documents\Space Game Unity Port\Assets\textures\Hex.png
map_d C:\\Users\\vincent\\Documents\\Space Game Unity Port\\Assets\\textures\\Hex.png

newmtl Hex_NONE
Ns 96.078431
Ka 0.000000 0.000000 0.000000
Kd 0.640000 0.640000 0.640000
Ks 0.500000 0.500000 0.500000
Ni 1.000000
d 1.000000
illum 2
map_Kd C:\\Users\\vincent\\Documents\\Space Game Unity Port\\Assets\\textures\\Hex.png
map_d C:\\Users\\vincent\\Documents\\Space Game Unity Port\\Assets\\textures\\Hex.png
