# Blender MTL File: 'shell.blend'
# Material Count: 2

newmtl Body
Ns 96.078431
Ka 0.000000 0.000000 0.000000
Kd 0.100000 0.100000 0.100000
Ks 0.000000 0.000000 0.000000
Ni 1.000000
d 1.000000
illum 2

newmtl Material
Ns 96.078431
Ka 0.000000 0.000000 0.000000
Kd 0.240000 0.024000 0.000000
Ks 0.000000 0.000000 0.000000
Ni 1.000000
d 1.000000
illum 2
